<?xml version="1.1" encoding="UTF-8"?>
<testsuite name="com.capra.integration.asana.AsanaProjectsTest" tests="1" failures="0" errors="0" timestamp="2013-09-24T08:32:25" hostname="lka" time="1.59">
  <properties/>
  <testcase name="testCreateReadProject" classname="com.capra.integration.asana.AsanaProjectsTest" time="1.59"/>
  <system-out><![CDATA[]]></system-out>
  <system-err><![CDATA[]]></system-err>
</testsuite>
